{
	"name":        "getSysDmOsWaitStats",
	"description": "os wait status",

	"extract": [
		{
			"order": 1,
			"sectionName": "getSysDmOsWaitStats",
			"file":[
				{
					"min":  "*",
					"max":  "*",
					"file": "sql/getSysDmOsWaitStats.sql"
				}
			],
			"primary key": [
				"EventTime",
				"WaitType"
			],
			"storage": "report",
			"savehistoryrecords": false,
			"parameters": [
			]
		}
	],

	"transformation": [
	],

	"load": {
		"file": "sqlite/load/getSysDmOsWaitStats.sql",
		"storage": "report",
		"attached": [
		],
		"parameters": [
		]
	},

	"component": {
		"name": "tableRawReport"
	}
}
