[
	{
		"EventDateTime": {
			"field":         "EventDateTime",
			"type":          "Sequelize.DATE",
			"allowNull":     false,
			"primaryKey":    true,
			"autoIncrement": false,
			"comment":       "EventDateTime"
		},

		"InstanceConnectionId": {
			"field":         "InstanceConnectionId",
			"type":          "Sequelize.INTEGER",
			"allowNull":     false,
			"primaryKey":    true,
			"autoIncrement": false,
			"comment":       "InstanceConnectionId"
		},

		"NumberOfSystemProcesses": {
			"field":         "NumberOfSystemProcesses",
			"type":          "Sequelize.INTEGER",
			"allowNull":     true,
			"primaryKey":    false,
			"autoIncrement": false,
			"comment":       "NumberOfSystemProcesses"
		},

		"NumberOfUserProcesses": {
			"field":         "NumberOfUserProcesses",
			"type":          "Sequelize.INTEGER",
			"allowNull":     true,
			"primaryKey":    false,
			"autoIncrement": false,
			"comment":       "NumberOfUserProcesses"
		},

		"NumberOfActiveUserProcesses": {
			"field":         "NumberOfActiveUserProcesses",
			"type":          "Sequelize.INTEGER",
			"allowNull":     true,
			"primaryKey":    false,
			"autoIncrement": false,
			"comment":       "NumberOfActiveUserProcesses"
		},

		"NumberOfBlockedProcesses": {
			"field":         "NumberOfBlockedProcesses",
			"type":          "Sequelize.INTEGER",
			"allowNull":     true,
			"primaryKey":    false,
			"autoIncrement": false,
			"comment":       "NumberOfBlockedProcesses"
		}
	}, {
		"tableName": "dwh_InstanceSummaryProcesses",

		"comment": "dwh sql server instance processes table (fact table)",

		"createdAt": false,

		"updatedAt": false,

		"freezeTableName": true,

		"charset": "utf8",

		"underscored": true,

		"indexes": [
		]
	}
]
