{
	"name":        "getInstanceCPUUtilization",
	"description": "CPU utilization",

	"extract": [
		{
			"order": 1,
			"sectionName": "getInstanceCPUUtilization",
			"file": [
				{
					"min":  "*",
					"max":  "*",
					"file": "sql/getInstanceCPUUtilization.sql"
				}
			],
			"primary key": [
				"ServerName",
				"RecordTimeStamp",
				"RecordRingBufferType"
			],
			"storage": "report",
			"savehistoryrecords": false,
			"parameters": [
			]
		}
	],

	"transformation": [
	],

	"load": {
		"file": "sqlite/load/getInstanceCPUUtilization.sql",
		"storage": "report",
		"attached": [
		],
		"parameters": [
		]
	},

	"component": {
		"name": "DateLineReport",
		"struct": {
			"xvalues": [
				"EventTime"
			],

			"yvalues": [
				"SQLProcessCPUUtilization",
				"OtherProcessesCPUUtilization",
				"SystemIdle"
			],

			"options": {
				"axes": {
					"xaxis": {
						"autoscale": true,
						"tickOptions": {
							"formatString": "%Y/%#m/%#d %#H:%#M"
						}
					},
					"yaxis": {
						"autoscale": true
					}
				},

				"axesDefaults": {
					"useSeriesColor": true
				},

				"series": [
					{
						"yaxis": "yaxis",

						"lineWidth": 2,

						"markerOptions": {
							"show": false,
							"style": "square",
							"lineWidth": 2
						}
					},
					{
						"yaxis": "yaxis",

						"lineWidth": 1,

						"markerOptions": {
							"show": false,
							"style": "square",
							"lineWidth": 2
						}
					},
					{
						"yaxis": "yaxis",

						"lineWidth": 1,

						"markerOptions": {
							"show": false,
							"style": "square",
							"lineWidth": 2
						}
					}
				]
			}
		}
	}
}
